-120 -8 -112 -56 -32 -16 600
-104 -80 792
-32 -64 880
-72 -16 -24 -96 -104 -120 512
-104 -96 -32 736
-64 -72 -88 744
-64 -80 -48 776
-40 112 -104 -88 616
-120 -80 -64 -56 -32 -48 544
-24 -104 848
-112 -104 760
-8 -96 -96 768
992
-112 -56 808
-8 -72 -24 864
-96 -80 -88 -120 576
-16 -40 -64 -120 -64 -72 568
-88 -40 -48 792
-112 -72 792
-64 -120 -40 -96 640
-88 -40 848
-56 -56 -80 -88 680
-40 -56 880
-64 -24 112 -64 696
-96 -40 840
-120 864
-8 -32 -8 -120 792
-112 -8 856
-112 -88 -80 688
-16 968
