-88 -112 -24 -32 -16 -120 -80 -120 -56 272
-72 -88 -48 64 -48 632
-64 -16 136 -104 -112 520
-104 -72 -112 680
72 -24 -104 -88 672
-48 -56 -24 -80 752
-72 -32 -120 -56 -24 24 -80 528
-80 -32 -56 800
-32 -72 -16 -80 -48 704
-104 -112 -40 -16 688
-16 40 -16 56 -88 -112 -88 520
40 -80 -56 -32 752
48 -48 -120 -8 104 -104 -112 392
-96 888
-40 -72 864
-32 -120 -16 -64 -48 -96 -112 56 -104 -88 176
992
24 -16 936
-104 -24 -80 760
-8 976
-88 -112 -120 -24 48 -88 464
-16 -48 -64 -64 -112 -24 -48 -88 464
-48 -72 -16 -24 -16 -8 -56 -24 664
