64 -56 32 -16 792
16 -40 -64 -24 16 -32 -160 584
-40 -56 40 -40 784
40 -8 928
992
-32 -24 -48 -64 -24 -40 -48 656
-16 -24 -64 -80 -8 -8 -32 704
-32 -32 -32 -32 -32 792
-48 -56 -64 800
24 -48 -64 24 -16 776
80 -40 -120 728
992
16 -16 -16 16 -16 -16 848
-8 -8 -8 -80 32 -80 -80 640
48 -144 -16 -8 -80 656
-24 -48 56 -24 -8 -8 -8 760
-32 56 -16 -80 -24 -16 -24 -240 440
16 -24 -32 896
-72 -24 880
-8 8 -8 -8 -320 600
